{
    "MonoBehaviour": {
        "m_Enabled": true,
        "m_EditorHideFlags": 0,
        "m_Name": "",
        "m_EditorClassIdentifier": "Unity.Formats.Fbx.Editor:UnityEditor.Formats.Fbx.Exporter:ExportSettings",
        "ExportOutsideProject": false,
        "Verbose": false,
        "launchAfterInstallation": true,
        "HideSendToUnityMenu": true,
        "BakeAnimation": true,
        "showConvertToPrefabDialog": true,
        "integrationSavePath": "D:\\projects\\DividerWalk\\DividerWalk\\DividerWalk",
        "selectedDCCApp": 0,
        "prefabSavePaths": [
            "."
        ],
        "fbxSavePaths": [
            "Models",
            "."
        ],
        "selectedFbxPath": 0,
        "selectedPrefabPath": 0,
        "dccOptionNames": [],
        "dccOptionPaths": [],
        "exportModelSettingsSerialize": {
            "exportFormat": 0,
            "animatedSkinnedMesh": false,
            "mayaCompatibleNaming": true,
            "include": 2,
            "lodLevel": 0,
            "objectPosition": 0,
            "exportUnrendered": true
        },
        "convertToPrefabSettingsSerialize": {
            "exportFormat": 0,
            "animatedSkinnedMesh": false,
            "mayaCompatibleNaming": true
        }
    }
}